{"369927": [[37, 376]],
"369943": [[1, 384]],
"369956": [[37, 1076]],
"369978": [[31, 812]],
"369998": [[1, 179]],
"369999": [[1, 41]],
"370093": [[1, 450]],
"370097": [[1, 356]],
"370102": [[1, 762]],
"370129": [[42, 123], [125, 552]],
"370144": [[1, 715], [717, 1329]],
"370169": [[46, 454], [456, 490], [492, 526], [528, 562], [564, 598], [600, 935], [1002, 1014], [1016, 1019], [1021, 1033], [1035, 1449]],
"370172": [[1, 300]],
"370175": [[92, 757], [759, 1785]],
"370293": [[39, 1618]],
"370294": [[1, 668]],
"370300": [[1, 962]],
"370304": [[1, 327]],
"370307": [[1, 708]],
"370321": [[39, 52]],
"370332": [[1, 144], [146, 1523], [1525, 1968]],
"370340": [[24, 779]],
"370354": [[34, 311]],
"370357": [[1, 801]],
"370406": [[37, 121], [123, 738], [746, 869]],
"370436": [[1, 31]],
"370460": [[8, 123]],
"370472": [[1, 32], [34, 43]],
"370497": [[1, 115], [117, 1419], [1426, 1436]],
"370522": [[48, 369]],
"370560": [[62, 90], [92, 410]],
"370579": [[33, 113], [120, 123]],
"370580": [[1, 2875]],
"370667": [[1, 28], [30, 102]],
"370717": [[39, 157]],
"370725": [[44, 392], [394, 456]],
"370749": [[49, 173], [175, 483], [485, 966], [968, 1541]],
"370753": [[1, 249]],
"370772": [[29, 1247]],
"370774": [[1, 159]],
"370775": [[1, 168]],
"370776": [[1, 326]],
"370790": [[54, 76]]}